
 _______          ______         ______
|       \        /      \       |      \
| $$$$$$$\      |  $$$$$$\       \$$$$$$
| $$__| $$      | $$   \$$        | $$
| $$    $$      | $$              | $$
| $$$$$$$\      | $$   __         | $$
| $$  | $$      | $$__/  \       _| $$_
| $$  | $$       \$$    $$      |   $$ \
 \$$   \$$        \$$$$$$        \$$$$$$

